^C:\USERS\PVELG\SOURCE\REPOS\HW13\HW13\HW13.CPP
C:\USERS\PVELG\SOURCE\REPOS\HW13\HW13\DEBUG\VC142.PDB
C:\USERS\PVELG\SOURCE\REPOS\HW13\HW13\DEBUG\VC142.IDB
C:\USERS\PVELG\SOURCE\REPOS\HW13\HW13\DEBUG\HW13.OBJ
