^C:\USERS\PVELG\SOURCE\REPOS\HW13\HW13\DEBUG\HW13.OBJ
C:\USERS\PVELG\SOURCE\REPOS\HW13\DEBUG\HW13.ILK
C:\USERS\PVELG\SOURCE\REPOS\HW13\DEBUG\HW13.EXE
C:\USERS\PVELG\SOURCE\REPOS\HW13\DEBUG\HW13.PDB
